{
  "name": "Petition",
  "base": "PersistedModel",
  "idInjection": true,
  "options": {
    "validateUpsert": true
  },
  "properties": {
    "caseNumber": {
      "type": "string"
    },
    "petitionId": {
      "type": "string"
    },
    "petitionDate": {
      "type": "string"
    },
    "petitioner": {
      "type": "string"
    },
    "respondent": {
      "type": "string"
    },
    "particular": {
      "type": "string"
    },
    "declaration": {
      "type": "string"
    },
    "remediesDetails": {
      "type": "string"
    },
    "delay": {
      "type": "string"
    },
    "caseFacts": {
      "type": "string"
    },
    "grounds": {
      "type": "string"
    },
    "relief": {
      "type": "string"
    },
    "interim": {
      "type": "string"
    },
    "documents": {
      "type": "string"
    },
    "caveat": {
      "type": "string"
    }
  },
  "validations": [],
  "relations": {},
  "acls": [
    {
      "accessType": "*",
      "principalType": "ROLE",
      "principalId": "$everyone",
      "permission": "DENY"
    },
    {
      "accessType": "*",
      "principalType": "ROLE",
      "principalId": "$authenticated",
      "permission": "ALLOW"
    }
  ],
  "methods": {}
}
